controlUnitCache_tb.vcd
$date
	Mon Jun 02 08:29:01 2025
$end
$version
	ModelSim Version 6.5b
$end
$timescale
	1ps
$end
$scope module controlUnitCache_tb $end
$var reg 1 ! clk $end
$var reg 1 " rst_b $end
$var reg 2 # cin [1:0] $end
$var wire 1 $ cout [1] $end
$var wire 1 % cout [0] $end
$scope module uut $end
$var parameter 4 & IDLE $end
$var parameter 4 ' TAG_CHECK $end
$var parameter 4 ( RD_HIT $end
$var parameter 4 ) WT_HIT $end
$var parameter 4 * RD_MISS $end
$var parameter 4 + WT_MISS $end
$var parameter 4 , EVICT $end
$var parameter 4 - UPDATE $end
$var parameter 4 . RESPONSE $end
$var wire 1 / clk $end
$var wire 1 0 rst_b $end
$var wire 1 1 cin [1] $end
$var wire 1 2 cin [0] $end
$var reg 2 3 cout [1:0] $end
$var reg 4 4 state [3:0] $end
$var reg 4 5 next_state [3:0] $end
$var reg 3 6 pos [2:0] $end
$var reg 2 7 evicted_index [1:0] $end
$var integer 32 8 i $end
$scope function biasedRandom $end
$var reg 3 9 biasedRandom [2:0] $end
$var reg 1 : dummy $end
$var integer 32 ; rand $end
$upscope $end
$scope function findEvict $end
$var reg 2 < findEvict [1:0] $end
$var reg 1 = dummy $end
$upscope $end
$scope task updateTimer $end
$var reg 2 > position [1:0] $end
$upscope $end
$scope task putFirst $end
$var reg 2 ? position [1:0] $end
$upscope $end
$upscope $end
$upscope $end
$enddefinitions $end
#0
$dumpvars
b0 &
b1 '
b10 (
b11 )
b100 *
b101 +
b110 ,
b111 -
b1000 .
0!
0"
b0 #
b0x 3
b0 4
b0 5
bx 6
bx 7
b100 8
bx 9
x:
bx ;
bx <
x=
bx >
bx ?
x%
0$
02
01
00
0/
$end
#5
1!
1/
b0 8
b1 8
b10 8
b11 8
b100 8
#10
0!
0/
#15
1!
1/
b0 8
b1 8
b10 8
b11 8
b100 8
#20
1"
0!
10
0/
#25
1!
1/
#30
b1 #
0!
12
0/
b1 5
#35
1!
1/
b1 4
b100 5
b1 3
1%
#40
b0 #
0!
02
0/
b1 5
b100 5
#45
1!
1/
b11 3
1:
b1100000 ;
b11 9
b0 8
b1 8
b10 8
b11 8
b100 8
1$
b1 5
b100 5
b100 4
b11 6
b1000 5
#50
0!
0/
#55
1!
1/
b1000 4
b0 5
#60
0!
0/
#65
1!
1/
b0 4
b1 3
0$
#70
0!
0/
#75
1!
1/
#80
0!
0/
#85
1!
1/
#90
0!
0/
#95
1!
1/
#100
0!
0/
#105
1!
1/
#110
0!
0/
#115
1!
1/
#120
0!
0/
#125
1!
1/
#130
0!
0/
#135
1!
1/
#140
b11 #
0!
12
11
0/
b1 5
#145
1!
1/
b1 4
b101 5
#150
b0 #
0!
02
01
0/
b1 5
b100 5
#155
1!
1/
b11 3
b1000 ;
b11 ?
b0 8
b1 8
b10 8
b11 8
b100 8
1$
b1 5
b100 5
b100 4
b1000 5
#160
0!
0/
#165
1!
1/
b1000 4
b0 5
#170
0!
0/
#175
1!
1/
b0 4
b1 3
0$
#180
0!
0/
#185
1!
1/
#190
0!
0/
#195
1!
1/
#200
0!
0/
#205
1!
1/
#210
0!
0/
#215
1!
1/
#220
0!
0/
#225
1!
1/
#230
0!
0/
#235
1!
1/
#240
0!
0/
#245
1!
1/
#250
b1 #
0!
12
0/
b1 5
#255
1!
1/
b1 4
b0 3
b10 5
0%
#260
b0 #
0!
02
0/
b1 5
b10 5
#265
1!
1/
b10 3
b1110 ;
b0 9
b0 8
b1 8
b10 8
b11 8
b100 8
1$
b1 5
b10 5
b10 4
b0 6
b1000 5
#270
0!
0/
#275
1!
1/
b1000 4
b0 5
#280
0!
0/
#285
1!
1/
b0 4
b0 3
0$
#290
0!
0/
#295
1!
1/
#300
0!
0/
#305
1!
1/
#310
0!
0/
#315
1!
1/
#320
0!
0/
#325
1!
1/
#330
0!
0/
#335
1!
1/
#340
0!
0/
#345
1!
1/
#350
0!
0/
#355
1!
1/
#360
b11 #
0!
12
11
0/
b1 5
#365
1!
1/
b1 4
b101 5
b1 3
1%
#370
b0 #
0!
02
01
0/
b1 5
b100 5
#375
1!
1/
b11 3
b110011 ;
b0 ?
b0 8
b1 8
b10 8
b11 8
b100 8
1$
b1 5
b100 5
b100 4
b1000 5
#380
0!
0/
#385
1!
1/
b1000 4
b0 5
#390
0!
0/
#395
1!
1/
b0 4
b1 3
0$
#400
0!
0/
#405
1!
1/
#410
0!
0/
#415
1!
1/
#420
0!
0/
#425
1!
1/
#430
0!
0/
#435
1!
1/
#440
0!
0/
#445
1!
1/
#450
0!
0/
#455
1!
1/
#460
0!
0/
#465
1!
1/
#470
b11 #
0!
12
11
0/
b1 5
#475
1!
1/
b1 4
b0 3
b11 5
0%
#480
b0 #
0!
02
01
0/
b1 5
b10 5
#485
1!
1/
b10 3
b1010000 ;
b1 9
b0 8
b1 8
b10 8
b11 8
b100 8
1$
b1 5
b10 5
b10 4
b1 6
b1000 5
#490
0!
0/
#495
1!
1/
b1000 4
b0 5
#500
0!
0/
#505
1!
1/
b0 4
b0 3
0$
#510
0!
0/
#515
1!
1/
#520
0!
0/
#525
1!
1/
#530
b11 #
0!
12
11
0/
b1 5
#535
1!
1/
b1 4
b101 5
b1 3
1%
#540
b0 #
0!
02
01
0/
b1 5
b100 5
#545
1!
1/
b11 3
b11110 ;
b0 9
b1 ?
b0 8
b1 8
b10 8
b11 8
b100 8
1$
b1 5
b100 5
b100 4
b0 6
b1000 5
#550
0!
0/
#555
1!
1/
b1000 4
b0 5
#560
0!
0/
#565
1!
1/
b0 4
b1 3
0$
#570
0!
0/
#575
1!
1/
#580
0!
0/
#585
1!
1/
#590
b11 #
0!
12
11
0/
b1 5
#595
1!
1/
b1 4
b0 3
b11 5
0%
#600
b0 #
0!
02
01
0/
b1 5
b10 5
#605
1!
1/
b10 3
b1000011 ;
b11 9
b0 ?
b0 8
b1 8
b10 8
b11 8
b100 8
1$
b1 5
b10 5
b10 4
b11 6
b1000 5
#610
0!
0/
#615
1!
1/
b1000 4
b0 5
#620
0!
0/
#625
1!
1/
b0 4
b0 3
0$
#630
0!
0/
#635
1!
1/
#640
0!
0/
#645
1!
1/
#650
b11 #
0!
12
11
0/
b1 5
#655
1!
1/
b1 4
b11 5
#660
b0 #
0!
02
01
0/
b1 5
b10 5
#665
1!
1/
b10 3
b111011 ;
b1 9
b11 ?
b0 8
b1 8
b10 8
b11 8
b100 8
1$
b1 5
b10 5
b10 4
b1 6
b1000 5
#670
0!
0/
#675
1!
1/
b1000 4
b0 5
#680
0!
0/
#685
1!
1/
b0 4
b0 3
0$
#690
0!
0/
#695
1!
1/
#700
0!
0/
#705
1!
1/
#710
b11 #
0!
12
11
0/
b1 5
#715
1!
1/
b1 4
b11 5
#720
b0 #
0!
02
01
0/
b1 5
b10 5
#725
1!
1/
b10 3
b110111 ;
b10 9
b1 ?
b0 8
b1 8
b10 8
b11 8
b100 8
1$
b1 5
b10 5
b10 4
b10 6
b1000 5
#730
0!
0/
#735
1!
1/
b1000 4
b0 5
#740
0!
0/
#745
1!
1/
b0 4
b0 3
0$
#750
0!
0/
#755
1!
1/
#760
0!
0/
#765
1!
1/
#770
b11 #
0!
12
11
0/
b1 5
#775
1!
1/
b1 4
b101 5
b1 3
1%
#780
b0 #
0!
02
01
0/
b1 5
b100 5
#785
1!
1/
b11 3
b100000 ;
b1 9
b10 ?
b0 8
b1 8
b10 8
b11 8
b100 8
1$
b1 5
b100 5
b100 4
b1 6
b1000 5
#790
0!
0/
#795
1!
1/
b1000 4
b0 5
#800
0!
0/
#805
1!
1/
b0 4
b1 3
0$
#810
0!
0/
#815
1!
1/
#820
0!
0/
#825
1!
1/
#830
b11 #
0!
12
11
0/
b1 5
#835
1!
1/
b1 4
b0 3
b11 5
0%
#840
b0 #
0!
02
01
0/
b1 5
b10 5
#845
1!
1/
b10 3
b100001 ;
b1 ?
b0 8
b1 8
b10 8
b11 8
b100 8
1$
b1 5
b10 5
b10 4
b1000 5
#850
0!
0/
#855
1!
1/
b1000 4
b0 5
#860
0!
0/
#865
1!
1/
b0 4
b0 3
0$
#870
0!
0/
#875
1!
1/
#880
0!
0/
#885
1!
1/
#890
b11 #
0!
12
11
0/
b1 5
#895
1!
1/
b1 4
b11 5
#900
b0 #
0!
02
01
0/
b1 5
b10 5
#905
1!
1/
b10 3
b1010111 ;
b0 8
b1 8
b10 8
b11 8
b100 8
1$
b1 5
b10 5
b10 4
b1000 5
#910
0!
0/
#915
1!
1/
b1000 4
b0 5
#920
0!
0/
#925
1!
1/
b0 4
b0 3
0$
#930
0!
0/
#935
1!
1/
#940
0!
0/
#945
1!
1/
#950
b11 #
0!
12
11
0/
b1 5
#955
1!
1/
b1 4
b11 5
#960
b0 #
0!
02
01
0/
b1 5
b10 5
#965
1!
1/
b10 3
b10011 ;
b0 8
b1 8
b10 8
b11 8
b100 8
1$
b1 5
b10 5
b10 4
b1000 5
#970
0!
0/
#975
1!
1/
b1000 4
b0 5
#980
0!
0/
#985
1!
1/
b0 4
b0 3
0$
#990
0!
0/
#995
1!
1/
#1000
0!
0/
#1005
1!
1/
#1010
b11 #
0!
12
11
0/
b1 5
#1015
1!
1/
b1 4
b11 5
#1020
b0 #
0!
02
01
0/
b1 5
b10 5
#1025
1!
1/
b10 3
b100 ;
b10 9
b0 8
b1 8
b10 8
b11 8
b100 8
1$
b1 5
b10 5
b10 4
b10 6
b1000 5
#1030
0!
0/
#1035
1!
1/
b1000 4
b0 5
#1040
0!
0/
#1045
1!
1/
b0 4
b0 3
0$
